^C:\USERS\PLATO\SOURCE\REPOS\MYCONSOLEOUT\X64\RELEASE\MYCONSOLEOUT.OBJ
C:\USERS\PLATO\SOURCE\REPOS\MYCONSOLEOUT\X64\RELEASE\MYCONSOLEOUT.EXE
C:\USERS\PLATO\SOURCE\REPOS\MYCONSOLEOUT\X64\RELEASE\MYCONSOLEOUT.PDB
